.....................
----------------------------------------------------------------------
Ran 21 tests in 0.004s

OK
Name             Stmts   Miss Branch BrPart  Cover   Missing
------------------------------------------------------------
Collatz.py          47      0     14      0   100%
TestCollatz.py      91      0      0      0   100%
------------------------------------------------------------
TOTAL              138      0     14      0   100%