1 10 20
100 200 125
201 210 89
900 1000 174
3 45 112
46 12 112
50 120 119
75 47 116
1 1 1
10 1 20
200 125 125
8 8 4
15 17 18
12 14 18
7 7 17
999999 999999 259
1200 1201 58
123 11 119
14 17 18
999998 999997 259
180987 134598 383
190000 1200 383
23 29 112
17 19 21
11 10 15
222222 222025 262
999111 111999 525
87 67 116
13 21 21
31 85 116
10 10 7
999999 1 525
1 999999 525
13 7 20
88 44 116
9 999999 525
6897 889934 525
1 900 179
89 90 31
71 77 116
1 2 2
999 888888 525
41 43 110
444 698 145
87 5 116
49876 1 324
24 48 112
607 13 144
4 4 3
83 40009 324
2400 86000 351
36860 49 324
65 55 113
1 3 8
90 89 31
33 11 112
890 348 179
67 31 113
11 1 20
28000 32 308
45 87 116
21 22222 279
771 777771 509
93 1003 179
456 994 179
100 3302 217
190 897500 525
555 120000 354
30 39 107
9 99911 351
9800 1236 262
12 999881 525
10022 21334 279
67899 999677 525
86878 14435 351
679099 1678 509
91220 12 351
1 300000 443
90092 91 351
900 8 179
63 21 113
512 16 144
64 1 113
9223 47 262
57 88 116
1290 8992 262
81 899999 525
6490 1 262
820000 81 509
947 100947 351
6 666661 509
22213 890 279
670 123 145
2 370000 443
91 19 116
8866 1200 262
1299 9 182
909 81 179
670000 670 509
156 700000 509
82 982999 525
